randnum/simulation/qsim/randnum.msim.vcd
$comment
	File created using the following command:
		vcd file randnum.msim.vcd -direction
$end
$date
	Wed May 15 19:13:45 2019
$end
$version
	ModelSim Version 10.1d
$end
$timescale
	1ps
$end
$scope module randnum_vlg_vec_tst $end
$var reg 1 ! CLK $end
$var reg 1 " reset $end
$var wire 1 # random [8] $end
$var wire 1 $ random [7] $end
$var wire 1 % random [6] $end
$var wire 1 & random [5] $end
$var wire 1 ' random [4] $end
$var wire 1 ( random [3] $end
$var wire 1 ) random [2] $end
$var wire 1 * random [1] $end
$var wire 1 + random [0] $end
$var wire 1 , sampler $end
$scope module i1 $end
$var wire 1 - gnd $end
$var wire 1 . vcc $end
$var wire 1 / unknown $end
$var tri1 1 0 devclrn $end
$var tri1 1 1 devpor $end
$var tri1 1 2 devoe $end
$var wire 1 3 random[0]~output_o $end
$var wire 1 4 random[1]~output_o $end
$var wire 1 5 random[2]~output_o $end
$var wire 1 6 random[3]~output_o $end
$var wire 1 7 random[4]~output_o $end
$var wire 1 8 random[5]~output_o $end
$var wire 1 9 random[6]~output_o $end
$var wire 1 : random[7]~output_o $end
$var wire 1 ; random[8]~output_o $end
$var wire 1 < CLK~input_o $end
$var wire 1 = reset~input_o $end
$var wire 1 > count~0_combout $end
$var wire 1 ? count~q $end
$var wire 1 @ temp[4]~0_combout $end
$var wire 1 A temp~1_combout $end
$var wire 1 B feedback~combout $end
$var wire 1 C random[0]~0_combout $end
$var wire 1 D random[0]~reg0_q $end
$var wire 1 E Add1~1_sumout $end
$var wire 1 F always0~0_combout $end
$var wire 1 G random~1_combout $end
$var wire 1 H random[1]~reg0_q $end
$var wire 1 I Add1~2 $end
$var wire 1 J Add1~5_sumout $end
$var wire 1 K random~2_combout $end
$var wire 1 L random[2]~reg0_q $end
$var wire 1 M always0~1_combout $end
$var wire 1 N always0~2_combout $end
$var wire 1 O always0~3_combout $end
$var wire 1 P Add1~6 $end
$var wire 1 Q Add1~9_sumout $end
$var wire 1 R random~3_combout $end
$var wire 1 S random[3]~reg0_q $end
$var wire 1 T Add1~10 $end
$var wire 1 U Add1~13_sumout $end
$var wire 1 V random~4_combout $end
$var wire 1 W random[4]~reg0_q $end
$var wire 1 X Add1~14 $end
$var wire 1 Y Add1~17_sumout $end
$var wire 1 Z random~5_combout $end
$var wire 1 [ random[5]~reg0_q $end
$var wire 1 \ Add0~0_combout $end
$var wire 1 ] Add1~18 $end
$var wire 1 ^ Add1~21_sumout $end
$var wire 1 _ random~6_combout $end
$var wire 1 ` random[6]~reg0_q $end
$var wire 1 a Add1~22 $end
$var wire 1 b Add1~25_sumout $end
$var wire 1 c random~7_combout $end
$var wire 1 d random[7]~reg0_q $end
$var wire 1 e Add0~1_combout $end
$var wire 1 f Add1~26 $end
$var wire 1 g Add1~29_sumout $end
$var wire 1 h random~8_combout $end
$var wire 1 i random[8]~reg0_q $end
$var wire 1 j temp [8] $end
$var wire 1 k temp [7] $end
$var wire 1 l temp [6] $end
$var wire 1 m temp [5] $end
$var wire 1 n temp [4] $end
$var wire 1 o temp [3] $end
$var wire 1 p temp [2] $end
$var wire 1 q temp [1] $end
$var wire 1 r temp [0] $end
$upscope $end
$upscope $end
$enddefinitions $end
#0
$dumpvars
0!
0"
0+
0*
0)
0(
0'
0&
0%
0$
0#
x,
0-
1.
x/
10
11
12
03
04
05
06
07
08
09
0:
0;
0<
0=
0>
0?
1@
1A
0B
0C
0D
1E
1F
1G
0H
0I
0J
0K
0L
1M
0N
0O
0P
1Q
1R
0S
0T
1U
1V
0W
0X
0Y
0Z
0[
1\
0]
1^
1_
0`
0a
0b
0c
0d
0e
0f
0g
0h
0i
0r
0q
0p
0o
0n
0m
0l
0k
0j
$end
#40000
1!
1<
0,
1p
1T
0Q
0\
1X
0U
0R
1Y
0V
1Z
#80000
0!
0<
1,
#120000
1!
1<
0,
#160000
0!
0<
1,
#200000
1"
1!
1=
1<
0,
1>
0A
1C
#240000
0!
0<
1,
#280000
1!
1<
0,
1o
0p
1?
1`
1[
1H
0G
0M
1U
1V
0T
1Q
0@
0C
0F
19
18
14
1%
1&
1*
0U
0Z
0_
#320000
0!
0<
1,
#360000
1!
1<
0,
#400000
0!
0<
1,
#440000
1!
1<
0,
#460000
0"
0=
1,
1@
1A
#480000
0!
0<
0,
#520000
1!
1<
1,
0o
1p
0X
1U
0V
1T
0Q
1R
0Y
1X
0U
1Y
#560000
0!
0<
0,
#600000
1!
1<
1,
#640000
0!
0<
0,
#680000
1!
1<
1,
#720000
0!
0<
0,
#760000
1!
1<
1,
#800000
0!
0<
0,
#840000
1!
1<
1,
#880000
0!
0<
0,
#920000
1!
1<
1,
#960000
0!
0<
0,
